{
	"info": {
		"_postman_id": "e1331e08-bd87-4e3f-9752-01179e2dc8ad",
		"name": "KWOTE",
		"schema": "https://schema.getpostman.com/json/collection/v2.1.0/collection.json",
		"_exporter_id": "25914690"
	},
	"item": [
		{
			"name": "POST ADMIN",
			"event": [
				{
					"listen": "test",
					"script": {
						"exec": [
							"var data = JSON.parse(responseBody);\r",
							"postman.setEnvironmentVariable(\"AuthToken\", data.access_token);"
						],
						"type": "text/javascript"
					}
				}
			],
			"request": {
				"method": "POST",
				"header": [],
				"body": {
					"mode": "raw",
					"raw": "{\r\n  \"email\": \"admin@example.com\",\r\n  \"firstName\": \"Max\",\r\n  \"lastName\": \"Muster\",\r\n  \"password\": \"12345678\",\r\n  \"role\": \"ADMIN\"\r\n}",
					"options": {
						"raw": {
							"language": "json"
						}
					}
				},
				"url": {
					"raw": "{{baseUrl}}auth/register",
					"host": [
						"{{baseUrl}}auth"
					],
					"path": [
						"register"
					]
				}
			},
			"response": []
		},
		{
			"name": "ADMIN Put",
			"request": {
				"auth": {
					"type": "bearer",
					"bearer": [
						{
							"key": "token",
							"value": "eyJhbGciOiJIUzI1NiJ9.eyJzdWIiOiJhZG1pbkBleGFtcGxlLmNvbSIsImlhdCI6MTY4MTczNzk0MCwiZXhwIjoxNjgxNzM5MzgwfQ.zhZK8FwF5GaMD7Ha6dtPfj0WPwMG348DXWhC6OSz9eU",
							"type": "string"
						}
					]
				},
				"method": "PUT",
				"header": [],
				"body": {
					"mode": "raw",
					"raw": "{\r\n    \"userId\": 1,\r\n    \"email\": \"admin@example.com\",\r\n    \"firstName\": \"MANUEL\",\r\n    \"lastName\": \"Muster\",\r\n    \"password\": \"12345678\",\r\n    \"role\": \"ADMIN\"\r\n}",
					"options": {
						"raw": {
							"language": "json"
						}
					}
				},
				"url": {
					"raw": "{{baseUrl}}auth/1",
					"host": [
						"{{baseUrl}}auth"
					],
					"path": [
						"1"
					]
				}
			},
			"response": []
		},
		{
			"name": "POST User",
			"event": [
				{
					"listen": "test",
					"script": {
						"exec": [
							"var data = JSON.parse(responseBody);\r",
							"pm.collectionVariables.set('AuthToken', data.jwt);\r",
							"pm.collectionVariables.set('UserId', data.user.userId);\r",
							""
						],
						"type": "text/javascript"
					}
				}
			],
			"request": {
				"method": "POST",
				"header": [],
				"body": {
					"mode": "raw",
					"raw": "{\r\n  \"email\": \"user@example.abba\",\r\n  \"firstName\": \"Max\",\r\n  \"lastName\": \"Muster\",\r\n  \"password\": \"12345678\",\r\n  \"role\": \"COMPANY\"\r\n}",
					"options": {
						"raw": {
							"language": "json"
						}
					}
				},
				"url": {
					"raw": "{{baseUrl}}auth/register",
					"host": [
						"{{baseUrl}}auth"
					],
					"path": [
						"register"
					]
				}
			},
			"response": []
		},
		{
			"name": "USER Put",
			"request": {
				"auth": {
					"type": "bearer",
					"bearer": [
						{
							"key": "token",
							"value": "eyJhbGciOiJIUzI1NiJ9.eyJzdWIiOiJ1c2VyQGV4YW1wbGUuY29tIiwiaWF0IjoxNjgxNzU2NTYzLCJleHAiOjE2ODE3NTgwMDN9.SYouLr_ICCqcyj0tzgGDrqyeTaCC9ZPnEQ8pcndsuwM",
							"type": "string"
						}
					]
				},
				"method": "PUT",
				"header": [],
				"body": {
					"mode": "raw",
					"raw": "{\r\n    \"userId\": 4,\r\n    \"email\": \"admin@example.com\",\r\n    \"firstName\": \"Mic\",\r\n    \"lastName\": \"Muster\",\r\n    \"password\": \"12345678\",\r\n    \"role\": \"ADMIN\"\r\n}",
					"options": {
						"raw": {
							"language": "json"
						}
					}
				},
				"url": {
					"raw": "{{baseUrl}}auth/1",
					"host": [
						"{{baseUrl}}auth"
					],
					"path": [
						"1"
					]
				}
			},
			"response": []
		},
		{
			"name": "Login",
			"request": {
				"method": "POST",
				"header": [],
				"body": {
					"mode": "raw",
					"raw": "{\r\n  \"email\": \"user@example.com\",\r\n  \"password\": \"12345678\"\r\n}",
					"options": {
						"raw": {
							"language": "json"
						}
					}
				},
				"url": {
					"raw": "{{baseUrl}}auth/login",
					"host": [
						"{{baseUrl}}auth"
					],
					"path": [
						"login"
					]
				}
			},
			"response": []
		},
		{
			"name": "Post Trades",
			"request": {
				"auth": {
					"type": "bearer",
					"bearer": [
						{
							"key": "token",
							"value": "eyJhbGciOiJIUzI1NiJ9.eyJzdWIiOiJ1c2VyQGV4YW1wbGUuY29tIiwiaWF0IjoxNjgxNzM4MDY1LCJleHAiOjE2ODE3Mzk1MDV9.nB18kVmGUOfXNTK59NbhRFBXuJ-auFqR3KaASo7GN9I",
							"type": "string"
						}
					]
				},
				"method": "POST",
				"header": [],
				"body": {
					"mode": "raw",
					"raw": "{\r\n    \"trade\":\"Elektro\"\r\n}",
					"options": {
						"raw": {
							"language": "json"
						}
					}
				},
				"url": {
					"raw": "{{baseUrl}}trade/",
					"host": [
						"{{baseUrl}}trade"
					],
					"path": [
						""
					]
				}
			},
			"response": []
		},
		{
			"name": "Post Project",
			"request": {
				"auth": {
					"type": "bearer",
					"bearer": [
						{
							"key": "token",
							"value": "eyJhbGciOiJIUzI1NiJ9.eyJyb2xlIjoiVVNFUiIsInN1YiI6Im1heE1AdXNlci5hdCIsImlhdCI6MTY4MzA1MzI3NCwiZXhwIjoxNjgzMTM5Njc0fQ.1Iie40NiesNJm8rIr6NQ5u6lIwl-xwuOTi3n379QlY4",
							"type": "string"
						}
					]
				},
				"method": "POST",
				"header": [],
				"body": {
					"mode": "raw",
					"raw": "{\r\n    \"projectName\": \"Papa pflegen\",\r\n    \"projectText\": \"Hilfe\",\r\n    \"trade\": \"Pflege\",\r\n    \"userId\": 4\r\n}",
					"options": {
						"raw": {
							"language": "json"
						}
					}
				},
				"url": {
					"raw": "{{baseUrl}}project/",
					"host": [
						"{{baseUrl}}project"
					],
					"path": [
						""
					]
				}
			},
			"response": []
		},
		{
			"name": "Post Company",
			"event": [
				{
					"listen": "test",
					"script": {
						"exec": [
							""
						],
						"type": "text/javascript"
					}
				}
			],
			"request": {
				"auth": {
					"type": "bearer",
					"bearer": [
						{
							"key": "token",
							"value": "{{AuthToken}}",
							"type": "string"
						}
					]
				},
				"method": "POST",
				"header": [],
				"body": {
					"mode": "raw",
					"raw": "{\r\n    \"companyName\":\"Eins\",\r\n    \"companyEmail\":\"schnell@x.at\",\r\n    \"registerNumber\": 18,\r\n    \"trades\":[\"Elektro\", \"Waschmaschine\"],\r\n    \"userId\": 3\r\n}",
					"options": {
						"raw": {
							"language": "json"
						}
					}
				},
				"url": {
					"raw": "{{baseUrl}}companies/",
					"host": [
						"{{baseUrl}}companies"
					],
					"path": [
						""
					]
				}
			},
			"response": []
		},
		{
			"name": "GET Company By Trade",
			"protocolProfileBehavior": {
				"disableBodyPruning": true
			},
			"request": {
				"method": "GET",
				"header": [],
				"body": {
					"mode": "raw",
					"raw": "{\r\n    \"trade\": \"Elektro\"\r\n}",
					"options": {
						"raw": {
							"language": "json"
						}
					}
				},
				"url": {
					"raw": "{{baseUrl}}companies/",
					"host": [
						"{{baseUrl}}companies"
					],
					"path": [
						""
					]
				}
			},
			"response": []
		},
		{
			"name": "POST Address",
			"request": {
				"method": "POST",
				"header": [],
				"body": {
					"mode": "raw",
					"raw": "{\r\n    \"streetName\": \"ABCDEF\",\r\n    \"streetNumber\": \"15\",\r\n    \"zip\": 1200,\r\n    \"city\": \"Grieskirchen\",\r\n    \"country\": \"Austria\",\r\n    \"userId\":2\r\n}",
					"options": {
						"raw": {
							"language": "json"
						}
					}
				},
				"url": {
					"raw": "{{baseUrl}}address/",
					"host": [
						"{{baseUrl}}address"
					],
					"path": [
						""
					]
				}
			},
			"response": []
		},
		{
			"name": "New Request",
			"request": {
				"method": "GET",
				"header": []
			},
			"response": []
		},
		{
			"name": "GET Company",
			"request": {
				"method": "GET",
				"header": [],
				"url": {
					"raw": "{{baseUrl}}companies/user/4",
					"host": [
						"{{baseUrl}}companies"
					],
					"path": [
						"user",
						"4"
					]
				}
			},
			"response": []
		},
		{
			"name": "POST Offer",
			"request": {
				"auth": {
					"type": "bearer",
					"bearer": [
						{
							"key": "token",
							"value": "eyJhbGciOiJIUzI1NiJ9.eyJyb2xlIjoiQ09NUEFOWSIsInN1YiI6IkJlcnRob2xkIiwiaWF0IjoxNjgzMjIxMzU0LCJleHAiOjE2ODMzMDc3NTR9.T7JDtqZNe05wuDqo68vzbZMvkHV9BGZn9EfpO81ccDA",
							"type": "string"
						}
					]
				},
				"method": "POST",
				"header": [],
				"body": {
					"mode": "raw",
					"raw": "{\r\n    \"price\": 50.0,\r\n    \"offerText\": \"JAJAJA\",\r\n    \"projectId\": 1,\r\n    \"companyId\": 6 \r\n}",
					"options": {
						"raw": {
							"language": "json"
						}
					}
				},
				"url": {
					"raw": "{{baseUrl}}offer/",
					"host": [
						"{{baseUrl}}offer"
					],
					"path": [
						""
					]
				}
			},
			"response": []
		},
		{
			"name": "GET Offers",
			"request": {
				"method": "GET",
				"header": [],
				"url": {
					"raw": "{{baseUrl}}offer/1",
					"host": [
						"{{baseUrl}}offer"
					],
					"path": [
						"1"
					]
				}
			},
			"response": []
		},
		{
			"name": "GET Projects with Offer",
			"request": {
				"auth": {
					"type": "bearer",
					"bearer": [
						{
							"key": "token",
							"value": "{{AuthToken}}",
							"type": "string"
						}
					]
				},
				"method": "GET",
				"header": [],
				"url": {
					"raw": "{{baseUrl}}project/user/",
					"host": [
						"{{baseUrl}}project"
					],
					"path": [
						"user",
						""
					]
				}
			},
			"response": []
		},
		{
			"name": "New Request",
			"request": {
				"method": "PUT",
				"header": [],
				"url": {
					"raw": "{{baseUrl}}project/",
					"host": [
						"{{baseUrl}}project"
					],
					"path": [
						""
					]
				}
			},
			"response": []
		},
		{
			"name": "GET ProjectPicture By Id",
			"request": {
				"method": "GET",
				"header": []
			},
			"response": []
		},
		{
			"name": "New Request",
			"request": {
				"method": "GET",
				"header": [],
				"url": {
					"raw": "{{baseUrl}}trade/",
					"host": [
						"{{baseUrl}}trade"
					],
					"path": [
						""
					]
				}
			},
			"response": []
		},
		{
			"name": "POST report",
			"request": {
				"auth": {
					"type": "bearer",
					"bearer": [
						{
							"key": "token",
							"value": "{{AuthToken}}",
							"type": "string"
						}
					]
				},
				"method": "POST",
				"header": [],
				"body": {
					"mode": "raw",
					"raw": "{\r\n    \"reportedUserId\": 1,\r\n    \"reportText\": \"Blabla\"\r\n}",
					"options": {
						"raw": {
							"language": "json"
						}
					}
				},
				"url": {
					"raw": "{{baseUrl}}report/",
					"host": [
						"{{baseUrl}}report"
					],
					"path": [
						""
					]
				}
			},
			"response": []
		},
		{
			"name": "GET Report",
			"request": {
				"auth": {
					"type": "bearer",
					"bearer": [
						{
							"key": "token",
							"value": "{{AuthToken}}",
							"type": "string"
						}
					]
				},
				"method": "GET",
				"header": [],
				"url": {
					"raw": "{{baseUrl}}report/",
					"host": [
						"{{baseUrl}}report"
					],
					"path": [
						""
					]
				}
			},
			"response": []
		},
		{
			"name": "GET User By Id",
			"request": {
				"method": "GET",
				"header": []
			},
			"response": []
		},
		{
			"name": "PUT Report",
			"request": {
				"auth": {
					"type": "bearer",
					"bearer": [
						{
							"key": "token",
							"value": "{{AuthToken}}",
							"type": "string"
						}
					]
				},
				"method": "PUT",
				"header": [],
				"body": {
					"mode": "raw",
					"raw": "{\"reportId\":4,\"reportedByUser\":{\"userId\":4,\"email\":\"privat2@privat.at\",\"firstName\":\"Privat\",\"lastName\":\"Billa\",\"locked\":false,\"role\":\"USER\"},\"reportedUser\":{\"userId\":2,\"email\":\"admin@man.at\",\"firstName\":\"Privat\",\"lastName\":\"Billa\",\"locked\":false,\"role\":\"ADMIN\"},\"reportedOffer\":{\"offerId\":0,\"price\":0,\"offerText\":null,\"projectId\":0,\"accepted\":false,\"confirmed\":false,\"rejected\":false,\"deleted\":false,\"companyDto\":null},\"reportText\":\"Blabla\",\"finished\":true,\"createdAt\":\"2023-05-10T14:36:43Z\"}",
					"options": {
						"raw": {
							"language": "json"
						}
					}
				},
				"url": {
					"raw": "{{baseUrl}}report/",
					"host": [
						"{{baseUrl}}report"
					],
					"path": [
						""
					]
				}
			},
			"response": []
		},
		{
			"name": "New Request",
			"request": {
				"method": "GET",
				"header": [],
				"url": {
					"raw": "{{baseUrl}}user",
					"host": [
						"{{baseUrl}}user"
					]
				}
			},
			"response": []
		},
		{
			"name": "New Request",
			"request": {
				"method": "GET",
				"header": []
			},
			"response": []
		},
		{
			"name": "New Request",
			"request": {
				"method": "DELETE",
				"header": [],
				"url": {
					"raw": "{{baseUrl}}project/6",
					"host": [
						"{{baseUrl}}project"
					],
					"path": [
						"6"
					]
				}
			},
			"response": []
		},
		{
			"name": "New Request",
			"request": {
				"method": "GET",
				"header": []
			},
			"response": []
		}
	],
	"event": [
		{
			"listen": "prerequest",
			"script": {
				"type": "text/javascript",
				"exec": [
					""
				]
			}
		},
		{
			"listen": "test",
			"script": {
				"type": "text/javascript",
				"exec": [
					""
				]
			}
		}
	],
	"variable": [
		{
			"key": "baseUrl",
			"value": "http://localhost:8080/api/",
			"type": "string"
		},
		{
			"key": "AuthToken",
			"value": "",
			"type": "string"
		},
		{
			"key": "UserId",
			"value": "",
			"type": "string"
		},
		{
			"key": "CompanyId",
			"value": "",
			"type": "string"
		}
	]
}